^C:\USERS\MIHAJLO\SOURCE\REPOS\OPENMPEXAMPLES\OPENMPEXAMPLES\STDAFX.CPP
C:\USERS\MIHAJLO\SOURCE\REPOS\OPENMPEXAMPLES\OPENMPEXAMPLES\DEBUG\OPENMPEXAMPLES.PCH
C:\USERS\MIHAJLO\SOURCE\REPOS\OPENMPEXAMPLES\OPENMPEXAMPLES\DEBUG\VC141.PDB
C:\USERS\MIHAJLO\SOURCE\REPOS\OPENMPEXAMPLES\OPENMPEXAMPLES\DEBUG\VC141.IDB
C:\USERS\MIHAJLO\SOURCE\REPOS\OPENMPEXAMPLES\OPENMPEXAMPLES\DEBUG\STDAFX.OBJ
^C:\USERS\MIHAJLO\SOURCE\REPOS\OPENMPEXAMPLES\OPENMPEXAMPLES\OPENMPEXAMPLES.CPP
C:\USERS\MIHAJLO\SOURCE\REPOS\OPENMPEXAMPLES\OPENMPEXAMPLES\DEBUG\VC141.PDB
C:\USERS\MIHAJLO\SOURCE\REPOS\OPENMPEXAMPLES\OPENMPEXAMPLES\DEBUG\VC141.IDB
C:\USERS\MIHAJLO\SOURCE\REPOS\OPENMPEXAMPLES\OPENMPEXAMPLES\DEBUG\OPENMPEXAMPLES.OBJ
